{
  "qInfo": {
    "qId": "cc23c222-9282-4515-8ba9-c49aca387085",
    "qType": "variable"
  },
  "qMetaDef": {
    "isBlueprintItem": true
  },
  "qName": "Quarter",
  "qNumberPresentation": {
    "qType": "U",
    "qnDec": 10,
    "qUseThou": 0
  }
}