{
  "qProperty": {
    "qInfo": {
      "qId": "2e8ddd74-41bb-4381-8ad5-2bba149b3c2b",
      "qType": "sheet"
    },
    "qMetaDef": {
      "title": "Risk",
      "description": "",
      "isBlueprintItem": true
    },
    "rank": 8,
    "thumbnail": {
      "qStaticContentUrlDef": {
        "qUrl": "/appcontent/d59ad991-56ca-47f8-9646-a126ecad3268/Demand planning-03.jpg"
      }
    },
    "columns": 24,
    "rows": 12,
    "cells": [
      {
        "name": "CSfFF",
        "type": "barchart",
        "col": 0,
        "row": 0,
        "colspan": 13,
        "rowspan": 6
      },
      {
        "name": "pPzEj",
        "type": "text-image",
        "col": 13,
        "row": 1,
        "colspan": 8,
        "rowspan": 5
      },
      {
        "name": "rmLaVf",
        "type": "barchart",
        "col": 0,
        "row": 6,
        "colspan": 21,
        "rowspan": 5
      },
      {
        "name": "buknUA",
        "type": "filterpane",
        "col": 21,
        "row": 1,
        "colspan": 3,
        "rowspan": 1,
        "bounds": {
          "y": 8.333333333333332,
          "x": 87.5,
          "width": 12.5,
          "height": 8.333333333333332
        }
      },
      {
        "name": "AnpMuGA",
        "type": "filterpane",
        "col": 21,
        "row": 2,
        "colspan": 3,
        "rowspan": 1,
        "bounds": {
          "y": 16.666666666666664,
          "x": 87.5,
          "width": 12.5,
          "height": 8.333333333333332
        }
      },
      {
        "name": "ZhkhV",
        "type": "swr-sense-navigation",
        "col": 3,
        "row": 11,
        "colspan": 3,
        "rowspan": 1
      },
      {
        "name": "PPpBZ",
        "type": "swr-sense-navigation",
        "col": 6,
        "row": 11,
        "colspan": 3,
        "rowspan": 1
      },
      {
        "name": "FuWuW",
        "type": "swr-sense-navigation",
        "col": 9,
        "row": 11,
        "colspan": 3,
        "rowspan": 1
      },
      {
        "name": "NERNKpg",
        "type": "swr-sense-navigation",
        "col": 12,
        "row": 11,
        "colspan": 3,
        "rowspan": 1
      },
      {
        "name": "vJJdEh",
        "type": "swr-sense-navigation",
        "col": 15,
        "row": 11,
        "colspan": 3,
        "rowspan": 1
      },
      {
        "name": "jVaJNP",
        "type": "swr-sense-navigation",
        "col": 18,
        "row": 11,
        "colspan": 3,
        "rowspan": 1
      },
      {
        "name": "YpDKYyF",
        "type": "swr-sense-navigation",
        "col": 21,
        "row": 11,
        "colspan": 3,
        "rowspan": 1
      },
      {
        "name": "AcDttmm",
        "type": "variable",
        "col": 13,
        "row": 0,
        "colspan": 8,
        "rowspan": 1
      },
      {
        "name": "jBjuU",
        "type": "swr-sense-navigation",
        "col": 0,
        "row": 11,
        "colspan": 3,
        "rowspan": 1
      },
      {
        "name": "jxaHVPB",
        "type": "filterpane",
        "col": 21,
        "row": 0,
        "colspan": 3,
        "rowspan": 1,
        "bounds": {
          "y": 0,
          "x": 87.5,
          "width": 12.5,
          "height": 8.333333333333332
        }
      },
      {
        "name": "rGVxj",
        "type": "filterpane",
        "col": 21,
        "row": 3,
        "colspan": 3,
        "rowspan": 1,
        "bounds": {
          "y": 25,
          "x": 87.5,
          "width": 12.5,
          "height": 8.333333333333332
        }
      }
    ],
    "qChildListDef": {
      "qData": {
        "title": "/title"
      }
    }
  },
  "qChildren": [
    {
      "qProperty": {
        "qInfo": {
          "qId": "CSfFF",
          "qType": "barchart"
        },
        "qMetaDef": {},
        "qHyperCubeDef": {
          "qDimensions": [
            {
              "qDef": {
                "qGrouping": "N",
                "qFieldDefs": [
                  "=Month"
                ],
                "qFieldLabels": [
                  "Month"
                ],
                "qSortCriterias": [
                  {
                    "qSortByNumeric": 1,
                    "qSortByLoadOrder": 1,
                    "qExpression": {}
                  }
                ],
                "qNumberPresentations": [],
                "qActiveField": 0,
                "autoSort": false,
                "cId": "chtPY",
                "othersLabel": "Others"
              },
              "qNullSuppression": true,
              "qOtherTotalSpec": {
                "qOtherMode": "OTHER_OFF",
                "qOtherCounted": {
                  "qv": "10"
                },
                "qOtherLimit": {
                  "qv": "0"
                },
                "qOtherLimitMode": "OTHER_GE_LIMIT",
                "qForceBadValueKeeping": true,
                "qApplyEvenWhenPossiblyWrongResult": true,
                "qOtherSortMode": "OTHER_SORT_DESCENDING",
                "qTotalMode": "TOTAL_OFF",
                "qReferencedExpression": {}
              },
              "qOtherLabel": {
                "qv": "Others"
              },
              "qTotalLabel": {},
              "qCalcCond": {},
              "qAttributeExpressions": [],
              "qAttributeDimensions": [],
              "qCalcCondition": {
                "qCond": {},
                "qMsg": {}
              }
            },
            {
              "qLibraryId": "RJcBYZg",
              "qDef": {
                "qGrouping": "N",
                "qFieldDefs": [],
                "qFieldLabels": [],
                "qSortCriterias": [
                  {
                    "qSortByNumeric": 1,
                    "qSortByAscii": 1,
                    "qSortByLoadOrder": 1,
                    "qExpression": {}
                  }
                ],
                "qNumberPresentations": [],
                "qActiveField": 0,
                "autoSort": true,
                "cId": "tTRgEj",
                "othersLabel": "Others"
              },
              "qOtherTotalSpec": {
                "qOtherMode": "OTHER_OFF",
                "qOtherCounted": {
                  "qv": "10"
                },
                "qOtherLimit": {
                  "qv": "0"
                },
                "qOtherLimitMode": "OTHER_GE_LIMIT",
                "qForceBadValueKeeping": true,
                "qApplyEvenWhenPossiblyWrongResult": true,
                "qOtherSortMode": "OTHER_SORT_DESCENDING",
                "qTotalMode": "TOTAL_OFF",
                "qReferencedExpression": {}
              },
              "qOtherLabel": {
                "qv": "Others"
              },
              "qTotalLabel": {},
              "qCalcCond": {},
              "qAttributeExpressions": [],
              "qAttributeDimensions": [],
              "qCalcCondition": {
                "qCond": {},
                "qMsg": {}
              }
            }
          ],
          "qMeasures": [
            {
              "qDef": {
                "qLabel": "Risk",
                "qTags": [],
                "qGrouping": "N",
                "qDef": "pick($(variable_Risk),\r\nSum({<[%DataType]={'Risk'},[Risk Measure]={'Out of stock'}>}[Risk Stat_MEAN]),\nSum({<[%DataType]={'Risk'},[Patient Demand]={'true'},[Risk Measure]={'Missed dispensing'}>}[Risk Stat_MEAN]))\n",
                "qNumFormat": {
                  "qType": "F",
                  "qnDec": 2,
                  "qUseThou": 0,
                  "qFmt": "#,##0.00",
                  "qDec": ".",
                  "qThou": ","
                },
                "qAccumulate": 0,
                "qActiveExpression": 0,
                "qExpressions": [],
                "autoSort": true,
                "cId": "qREQfs",
                "numFormatFromTemplate": true,
                "isCustomFormatted": false
              },
              "qSortBy": {
                "qSortByNumeric": -1,
                "qSortByLoadOrder": 1,
                "qExpression": {}
              },
              "qAttributeExpressions": [
                {
                  "qExpression": "rgb(Red,Green,Blue)",
                  "qAttribute": true,
                  "id": "colorByExpression"
                }
              ],
              "qAttributeDimensions": [],
              "qCalcCond": {},
              "qCalcCondition": {
                "qCond": {},
                "qMsg": {}
              }
            }
          ],
          "qInterColumnSortOrder": [
            0,
            2,
            1
          ],
          "qSuppressMissing": true,
          "qInitialDataFetch": [
            {
              "qLeft": 0,
              "qTop": 0,
              "qWidth": 17,
              "qHeight": 500
            }
          ],
          "qReductionMode": "N",
          "qMode": "K",
          "qPseudoDimPos": -1,
          "qNoOfLeftDims": -1,
          "qAlwaysFullyExpanded": true,
          "qMaxStackedCells": 5000,
          "qCalcCond": {},
          "qTitle": {},
          "qCalcCondition": {
            "qCond": {},
            "qMsg": {}
          },
          "qColumnOrder": [],
          "qLayoutExclude": {
            "qHyperCubeDef": {
              "qDimensions": [],
              "qMeasures": [],
              "qInterColumnSortOrder": [],
              "qInitialDataFetch": [],
              "qReductionMode": "N",
              "qMode": "S",
              "qPseudoDimPos": -1,
              "qNoOfLeftDims": -1,
              "qMaxStackedCells": 5000,
              "qCalcCond": {},
              "qTitle": {},
              "qCalcCondition": {
                "qCond": {},
                "qMsg": {}
              },
              "qColumnOrder": []
            }
          }
        },
        "refLine": {
          "refLines": []
        },
        "showTitles": true,
        "title": {
          "qStringExpression": {
            "qExpr": "=pick(match($(variable_Risk),'1','2'),'Future out of stock','Future missed dispensing') "
          }
        },
        "subtitle": "",
        "footnote": "",
        "showDetails": false,
        "barGrouping": {
          "grouping": "stacked"
        },
        "orientation": "vertical",
        "scrollStartPos": 0,
        "gridLine": {
          "auto": true,
          "spacing": 2
        },
        "dataPoint": {
          "showLabels": false
        },
        "color": {
          "auto": false,
          "mode": "byExpression",
          "useBaseColors": "off",
          "paletteColor": {
            "index": 6
          },
          "useDimColVal": true,
          "persistent": true,
          "expressionIsColor": true,
          "expressionLabel": "",
          "measureScheme": "sg",
          "reverseScheme": false,
          "dimensionScheme": "12",
          "autoMinMax": false,
          "measureMin": 0,
          "measureMax": 10,
          "byDimDef": {
            "label": "tPAqWjF",
            "key": "tPAqWjF",
            "type": "libraryItem",
            "activeDimensionIndex": -1
          },
          "altLabel": "tPAqWjF",
          "colorExpression": "rgb(Red,Green,Blue)",
          "useMeasureGradient": false
        },
        "legend": {
          "show": true,
          "dock": "auto",
          "showTitle": true
        },
        "dimensionAxis": {
          "continuousAuto": true,
          "show": "labels",
          "label": "auto",
          "dock": "near"
        },
        "preferContinuousAxis": true,
        "measureAxis": {
          "show": "all",
          "dock": "near",
          "spacing": 1,
          "autoMinMax": true,
          "minMax": "min",
          "min": 0,
          "max": 10
        },
        "visualization": "barchart"
      },
      "qChildren": []
    },
    {
      "qProperty": {
        "qInfo": {
          "qId": "pPzEj",
          "qType": "text-image"
        },
        "qMetaDef": {},
        "qHyperCubeDef": {
          "qDimensions": [],
          "qMeasures": [],
          "qInterColumnSortOrder": [],
          "qInitialDataFetch": [],
          "qReductionMode": "N",
          "qMode": "S",
          "qPseudoDimPos": -1,
          "qNoOfLeftDims": -1,
          "qMaxStackedCells": 5000,
          "qCalcCond": {},
          "qTitle": {},
          "qCalcCondition": {
            "qCond": {},
            "qMsg": {}
          },
          "qColumnOrder": [],
          "customErrorMessage": {
            "calcCond": ""
          },
          "qLayoutExclude": {
            "qHyperCubeDef": {
              "qDimensions": [],
              "qMeasures": [],
              "qInterColumnSortOrder": [],
              "qInitialDataFetch": [],
              "qReductionMode": "N",
              "qMode": "S",
              "qPseudoDimPos": -1,
              "qNoOfLeftDims": -1,
              "qMaxStackedCells": 5000,
              "qCalcCond": {},
              "qTitle": {},
              "qCalcCondition": {
                "qCond": {},
                "qMsg": {}
              },
              "qColumnOrder": []
            }
          }
        },
        "showTitles": false,
        "title": "",
        "subtitle": "",
        "footnote": "",
        "showDetails": false,
        "responsive": "all",
        "markdown": "**#[Missed dispensing](3)** = the number of kits needed for a patient dispensing visit, but not available at site. ^[^[\n](inherit)^[**#[Out of stock](3)** = number of kits needed for a patient visit but not available at site level or upstream in the supply chain at the time of dispensing.](inherit)^[\n](inherit)^[Out of stock events cannot be mitigated by human intervention.](inherit)](inherit)",
        "images": [],
        "background": {
          "isUsed": false,
          "size": "auto",
          "position": "topLeft",
          "url": {}
        },
        "visualization": "text-image"
      },
      "qChildren": []
    },
    {
      "qProperty": {
        "qInfo": {
          "qId": "rmLaVf",
          "qType": "pivot-table"
        },
        "qMetaDef": {},
        "qHyperCubeDef": {
          "qDimensions": [
            {
              "qDef": {
                "qGrouping": "N",
                "qFieldDefs": [
                  "=Month"
                ],
                "qFieldLabels": [
                  "Month"
                ],
                "qSortCriterias": [
                  {
                    "qSortByNumeric": 1,
                    "qSortByLoadOrder": 1,
                    "qExpression": {}
                  }
                ],
                "qNumberPresentations": [],
                "qActiveField": 0,
                "autoSort": false,
                "cId": "chtPY",
                "othersLabel": "Others"
              },
              "qNullSuppression": true,
              "qOtherTotalSpec": {
                "qOtherMode": "OTHER_OFF",
                "qOtherCounted": {
                  "qv": "10"
                },
                "qOtherLimit": {
                  "qv": "0"
                },
                "qOtherLimitMode": "OTHER_GE_LIMIT",
                "qForceBadValueKeeping": true,
                "qApplyEvenWhenPossiblyWrongResult": true,
                "qOtherSortMode": "OTHER_SORT_DESCENDING",
                "qTotalMode": "TOTAL_EXPR",
                "qReferencedExpression": {}
              },
              "qOtherLabel": {
                "qv": "Others"
              },
              "qTotalLabel": {
                "qv": "Totals"
              },
              "qCalcCond": {},
              "qAttributeExpressions": [],
              "qAttributeDimensions": [],
              "qCalcCondition": {
                "qCond": {},
                "qMsg": {}
              },
              "othersLabel": "Others"
            },
            {
              "qLibraryId": "MGyFKn",
              "qDef": {
                "qGrouping": "N",
                "qFieldDefs": [],
                "qFieldLabels": [],
                "qSortCriterias": [
                  {
                    "qSortByNumeric": 1,
                    "qSortByAscii": 1,
                    "qSortByLoadOrder": 1,
                    "qExpression": {}
                  }
                ],
                "qNumberPresentations": [],
                "qActiveField": 0,
                "autoSort": true,
                "cId": "sgdmJs",
                "othersLabel": "Others"
              },
              "qOtherTotalSpec": {
                "qOtherMode": "OTHER_OFF",
                "qOtherCounted": {
                  "qv": "10"
                },
                "qOtherLimit": {
                  "qv": "0"
                },
                "qOtherLimitMode": "OTHER_GE_LIMIT",
                "qForceBadValueKeeping": true,
                "qApplyEvenWhenPossiblyWrongResult": true,
                "qOtherSortMode": "OTHER_SORT_DESCENDING",
                "qTotalMode": "TOTAL_OFF",
                "qReferencedExpression": {}
              },
              "qOtherLabel": {
                "qv": "Others"
              },
              "qTotalLabel": {
                "qv": "Totals"
              },
              "qCalcCond": {},
              "qAttributeExpressions": [],
              "qAttributeDimensions": [],
              "qCalcCondition": {
                "qCond": {},
                "qMsg": {}
              }
            },
            {
              "qDef": {
                "qGrouping": "N",
                "qFieldDefs": [
                  "=[Site group]"
                ],
                "qFieldLabels": [
                  "Site group"
                ],
                "qSortCriterias": [
                  {
                    "qSortByNumeric": 1,
                    "qSortByAscii": 1,
                    "qSortByLoadOrder": 1,
                    "qExpression": {}
                  }
                ],
                "qNumberPresentations": [],
                "qActiveField": 0,
                "autoSort": true,
                "cId": "NURT",
                "othersLabel": "Others"
              },
              "qNullSuppression": true,
              "qOtherTotalSpec": {
                "qOtherMode": "OTHER_OFF",
                "qOtherCounted": {
                  "qv": "10"
                },
                "qOtherLimit": {
                  "qv": "0"
                },
                "qOtherLimitMode": "OTHER_GE_LIMIT",
                "qForceBadValueKeeping": true,
                "qApplyEvenWhenPossiblyWrongResult": true,
                "qOtherSortMode": "OTHER_SORT_DESCENDING",
                "qTotalMode": "TOTAL_OFF",
                "qReferencedExpression": {}
              },
              "qOtherLabel": {
                "qv": "Others"
              },
              "qTotalLabel": {
                "qv": "Totals"
              },
              "qCalcCond": {},
              "qAttributeExpressions": [],
              "qAttributeDimensions": [],
              "qCalcCondition": {
                "qCond": {},
                "qMsg": {}
              }
            },
            {
              "qLibraryId": "RJcBYZg",
              "qDef": {
                "qGrouping": "N",
                "qFieldDefs": [],
                "qFieldLabels": [],
                "qSortCriterias": [
                  {
                    "qSortByNumeric": 1,
                    "qSortByAscii": 1,
                    "qSortByLoadOrder": 1,
                    "qExpression": {}
                  }
                ],
                "qNumberPresentations": [],
                "qActiveField": 0,
                "autoSort": true,
                "cId": "XNTzDE",
                "othersLabel": "Others"
              },
              "qOtherTotalSpec": {
                "qOtherMode": "OTHER_OFF",
                "qOtherCounted": {
                  "qv": "10"
                },
                "qOtherLimit": {
                  "qv": "0"
                },
                "qOtherLimitMode": "OTHER_GE_LIMIT",
                "qForceBadValueKeeping": true,
                "qApplyEvenWhenPossiblyWrongResult": true,
                "qOtherSortMode": "OTHER_SORT_DESCENDING",
                "qTotalMode": "TOTAL_EXPR",
                "qReferencedExpression": {}
              },
              "qOtherLabel": {
                "qv": "Others"
              },
              "qTotalLabel": {
                "qv": "Totals"
              },
              "qCalcCond": {},
              "qAttributeExpressions": [],
              "qAttributeDimensions": [],
              "qCalcCondition": {
                "qCond": {},
                "qMsg": {}
              }
            }
          ],
          "qMeasures": [
            {
              "qDef": {
                "qLabel": "Risk",
                "qTags": [],
                "qGrouping": "N",
                "qDef": "pick($(variable_Risk),\r\nSum({<[%DataType]={'Risk'},[Risk Measure]={'Out of stock'}>}[Risk Stat_MEAN]),\nSum({<[%DataType]={'Risk'},[Patient Demand]={'true'},[Risk Measure]={'Missed dispensing'}>}[Risk Stat_MEAN]))\n",
                "qNumFormat": {
                  "qType": "F",
                  "qnDec": 2,
                  "qUseThou": 0,
                  "qFmt": "#,##0.00",
                  "qDec": ".",
                  "qThou": ","
                },
                "qAccumulate": 0,
                "qActiveExpression": 0,
                "qExpressions": [],
                "autoSort": true,
                "cId": "qREQfs",
                "numFormatFromTemplate": true,
                "isCustomFormatted": false
              },
              "qSortBy": {
                "qSortByNumeric": -1,
                "qSortByLoadOrder": 1,
                "qExpression": {}
              },
              "qAttributeExpressions": [
                {
                  "qAttribute": true
                },
                {
                  "qAttribute": true
                }
              ],
              "qAttributeDimensions": [],
              "qCalcCond": {},
              "qCalcCondition": {
                "qCond": {},
                "qMsg": {}
              }
            }
          ],
          "qInterColumnSortOrder": [
            0,
            1,
            2,
            3
          ],
          "qSuppressMissing": true,
          "qInitialDataFetch": [
            {
              "qLeft": 0,
              "qTop": 0,
              "qWidth": 50,
              "qHeight": 50
            }
          ],
          "qReductionMode": "N",
          "qMode": "P",
          "qPseudoDimPos": -1,
          "qNoOfLeftDims": 2,
          "qMaxStackedCells": 5000,
          "qShowTotalsAbove": true,
          "qIndentMode": true,
          "qCalcCond": {},
          "qTitle": {},
          "qCalcCondition": {
            "qCond": {},
            "qMsg": {}
          },
          "qColumnOrder": [],
          "columnWidths": [],
          "qLayoutExclude": {
            "qHyperCubeDef": {
              "qDimensions": [],
              "qMeasures": [],
              "qInterColumnSortOrder": [],
              "qInitialDataFetch": [],
              "qReductionMode": "N",
              "qMode": "S",
              "qPseudoDimPos": -1,
              "qNoOfLeftDims": -1,
              "qMaxStackedCells": 5000,
              "qCalcCond": {},
              "qTitle": {},
              "qCalcCondition": {
                "qCond": {},
                "qMsg": {}
              },
              "qColumnOrder": []
            }
          }
        },
        "showTitles": false,
        "title": "",
        "subtitle": "",
        "footnote": "",
        "showDetails": false,
        "visualization": "pivot-table",
        "qLayoutExclude": {}
      },
      "qChildren": []
    },
    {
      "qProperty": {
        "qInfo": {
          "qId": "buknUA",
          "qType": "filterpane"
        },
        "qMetaDef": {},
        "qChildListDef": {
          "qData": {
            "info": "/qInfo"
          }
        },
        "showTitles": false,
        "title": "",
        "subtitle": "",
        "footnote": "",
        "showDetails": false,
        "visualization": "filterpane"
      },
      "qChildren": [
        {
          "qProperty": {
            "qInfo": {
              "qId": "ace05ae7-fcac-4953-a091-d3a9461d6749",
              "qType": "listbox"
            },
            "qMetaDef": {},
            "qListObjectDef": {
              "qLibraryId": "RJcBYZg",
              "qDef": {
                "qGrouping": "N",
                "qFieldDefs": [],
                "qFieldLabels": [],
                "qSortCriterias": [
                  {
                    "qSortByState": 1,
                    "qSortByNumeric": 1,
                    "qSortByAscii": 1,
                    "qSortByLoadOrder": 1,
                    "qExpression": {}
                  }
                ],
                "qNumberPresentations": [],
                "qActiveField": 0,
                "autoSort": true,
                "cId": "tjVBn"
              },
              "qFrequencyMode": "N",
              "qShowAlternatives": true,
              "qInitialDataFetch": [],
              "qExpressions": [],
              "qOtherTotalSpec": {}
            },
            "showTitles": true,
            "title": "Trial",
            "subtitle": "",
            "footnote": "",
            "showDetails": false,
            "visualization": "listbox"
          },
          "qChildren": []
        }
      ]
    },
    {
      "qProperty": {
        "qInfo": {
          "qId": "AnpMuGA",
          "qType": "filterpane"
        },
        "qMetaDef": {},
        "qChildListDef": {
          "qData": {
            "info": "/qInfo"
          }
        },
        "showTitles": false,
        "title": "",
        "subtitle": "",
        "footnote": "",
        "showDetails": false,
        "visualization": "filterpane"
      },
      "qChildren": [
        {
          "qProperty": {
            "qInfo": {
              "qId": "f8c681ec-9a7f-4a37-acbf-8c39f39e47bb",
              "qType": "listbox"
            },
            "qMetaDef": {},
            "qListObjectDef": {
              "qLibraryId": "MGyFKn",
              "qDef": {
                "qGrouping": "N",
                "qFieldDefs": [],
                "qFieldLabels": [],
                "qSortCriterias": [
                  {
                    "qSortByState": 1,
                    "qSortByNumeric": 1,
                    "qSortByAscii": 1,
                    "qSortByLoadOrder": 1,
                    "qExpression": {}
                  }
                ],
                "qNumberPresentations": [],
                "qActiveField": 0,
                "autoSort": true,
                "cId": "eRqvfD"
              },
              "qFrequencyMode": "N",
              "qShowAlternatives": true,
              "qInitialDataFetch": [],
              "qExpressions": [],
              "qOtherTotalSpec": {}
            },
            "showTitles": true,
            "title": {
              "qStringExpression": {
                "qExpr": "'SKU'"
              }
            },
            "subtitle": "",
            "footnote": "",
            "showDetails": false,
            "visualization": "listbox"
          },
          "qChildren": []
        }
      ]
    },
    {
      "qProperty": {
        "qInfo": {
          "qId": "ZhkhV",
          "qType": "swr-sense-navigation"
        },
        "qMetaDef": {},
        "showTitles": false,
        "title": "",
        "subtitle": "",
        "footnote": "",
        "showDetails": false,
        "props": {
          "buttonLabel": "KPIs",
          "buttonStyle": "info",
          "fullWidth": true,
          "buttonAlign": "left",
          "buttonIcon": "",
          "action": "gotoSheet",
          "sheetId": "",
          "selectedSheet": "9f035466-5e72-4ff6-935a-784b98d11b78",
          "selectedStory": "",
          "websiteUrl": "",
          "isActionsBefore": false,
          "actionBefore1": "none",
          "field1": "",
          "variable1": "",
          "value1": "",
          "bookmark1": "",
          "actionBefore2": "none",
          "field2": "",
          "variable2": "",
          "value2": "",
          "bookmark2": ""
        },
        "visualization": "swr-sense-navigation",
        "version": "0.5.8",
        "extensionMeta": {
          "translationKey": "",
          "icon": "puzzle",
          "iconChar": "g",
          "isLibraryItem": true,
          "name": "Sheet Navigation & Actions",
          "description": "Sense Sheet Navigation + Actions visualization extension for Qlik Sense.",
          "template": "swr-sense-navigation",
          "isThirdParty": true,
          "type": "visualization",
          "version": "0.5.8",
          "preview": "swr-sense-navigation.png",
          "author": "Stefan Walther",
          "license": "MIT",
          "homepage": "http://github.com/stefanwalther/sense-navigation",
          "keywords": "qlik-sense, visualization",
          "repository": "https://github.com/stefanwalther/sense-navigation",
          "dependencies": {
            "qlik-sense": ">=2.1.1"
          },
          "previewIconURL": "../extensions/swr-sense-navigation/swr-sense-navigation.png"
        }
      },
      "qChildren": []
    },
    {
      "qProperty": {
        "qInfo": {
          "qId": "PPpBZ",
          "qType": "swr-sense-navigation"
        },
        "qMetaDef": {},
        "showTitles": false,
        "title": "",
        "subtitle": "",
        "footnote": "",
        "showDetails": false,
        "props": {
          "buttonLabel": "IMP release plan",
          "buttonStyle": "info",
          "fullWidth": true,
          "buttonAlign": "left",
          "buttonIcon": "",
          "action": "gotoSheet",
          "sheetId": "",
          "selectedSheet": "5a087770-d96d-4ebd-b7ae-575eea31d845",
          "selectedStory": "",
          "websiteUrl": "",
          "isActionsBefore": false,
          "actionBefore1": "none",
          "field1": "",
          "variable1": "",
          "value1": "",
          "bookmark1": "",
          "actionBefore2": "none",
          "field2": "",
          "variable2": "",
          "value2": "",
          "bookmark2": ""
        },
        "visualization": "swr-sense-navigation",
        "version": "0.5.8",
        "extensionMeta": {
          "translationKey": "",
          "icon": "puzzle",
          "iconChar": "g",
          "isLibraryItem": true,
          "name": "Sheet Navigation & Actions",
          "description": "Sense Sheet Navigation + Actions visualization extension for Qlik Sense.",
          "template": "swr-sense-navigation",
          "isThirdParty": true,
          "type": "visualization",
          "version": "0.5.8",
          "preview": "swr-sense-navigation.png",
          "author": "Stefan Walther",
          "license": "MIT",
          "homepage": "http://github.com/stefanwalther/sense-navigation",
          "keywords": "qlik-sense, visualization",
          "repository": "https://github.com/stefanwalther/sense-navigation",
          "dependencies": {
            "qlik-sense": ">=2.1.1"
          },
          "previewIconURL": "../extensions/swr-sense-navigation/swr-sense-navigation.png"
        }
      },
      "qChildren": []
    },
    {
      "qProperty": {
        "qInfo": {
          "qId": "FuWuW",
          "qType": "swr-sense-navigation"
        },
        "qMetaDef": {},
        "showTitles": false,
        "title": "",
        "subtitle": "",
        "footnote": "",
        "showDetails": false,
        "props": {
          "buttonLabel": "Demand",
          "buttonStyle": "info",
          "fullWidth": true,
          "buttonAlign": "left",
          "buttonIcon": "",
          "action": "gotoSheet",
          "sheetId": "",
          "selectedSheet": "a220caf0-ea8f-4a5d-b3cf-ad89d0150a1a",
          "selectedStory": "",
          "websiteUrl": "",
          "isActionsBefore": false,
          "actionBefore1": "none",
          "field1": "",
          "variable1": "",
          "value1": "",
          "bookmark1": "",
          "actionBefore2": "none",
          "field2": "",
          "variable2": "",
          "value2": "",
          "bookmark2": ""
        },
        "visualization": "swr-sense-navigation",
        "version": "0.5.8",
        "extensionMeta": {
          "translationKey": "",
          "icon": "puzzle",
          "iconChar": "g",
          "isLibraryItem": true,
          "name": "Sheet Navigation & Actions",
          "description": "Sense Sheet Navigation + Actions visualization extension for Qlik Sense.",
          "template": "swr-sense-navigation",
          "isThirdParty": true,
          "type": "visualization",
          "version": "0.5.8",
          "preview": "swr-sense-navigation.png",
          "author": "Stefan Walther",
          "license": "MIT",
          "homepage": "http://github.com/stefanwalther/sense-navigation",
          "keywords": "qlik-sense, visualization",
          "repository": "https://github.com/stefanwalther/sense-navigation",
          "dependencies": {
            "qlik-sense": ">=2.1.1"
          },
          "previewIconURL": "../extensions/swr-sense-navigation/swr-sense-navigation.png"
        }
      },
      "qChildren": []
    },
    {
      "qProperty": {
        "qInfo": {
          "qId": "NERNKpg",
          "qType": "swr-sense-navigation"
        },
        "qMetaDef": {},
        "showTitles": false,
        "title": "",
        "subtitle": "",
        "footnote": "",
        "showDetails": false,
        "props": {
          "buttonLabel": "Distribution",
          "buttonStyle": "info",
          "fullWidth": true,
          "buttonAlign": "left",
          "buttonIcon": "",
          "action": "gotoSheet",
          "sheetId": "",
          "selectedSheet": "4bbcae54-d166-4302-a737-504b9f0caf02",
          "selectedStory": "",
          "websiteUrl": "",
          "isActionsBefore": false,
          "actionBefore1": "none",
          "field1": "",
          "variable1": "",
          "value1": "",
          "bookmark1": "",
          "actionBefore2": "none",
          "field2": "",
          "variable2": "",
          "value2": "",
          "bookmark2": ""
        },
        "visualization": "swr-sense-navigation",
        "version": "0.5.8",
        "extensionMeta": {
          "translationKey": "",
          "icon": "puzzle",
          "iconChar": "g",
          "isLibraryItem": true,
          "name": "Sheet Navigation & Actions",
          "description": "Sense Sheet Navigation + Actions visualization extension for Qlik Sense.",
          "template": "swr-sense-navigation",
          "isThirdParty": true,
          "type": "visualization",
          "version": "0.5.8",
          "preview": "swr-sense-navigation.png",
          "author": "Stefan Walther",
          "license": "MIT",
          "homepage": "http://github.com/stefanwalther/sense-navigation",
          "keywords": "qlik-sense, visualization",
          "repository": "https://github.com/stefanwalther/sense-navigation",
          "dependencies": {
            "qlik-sense": ">=2.1.1"
          },
          "previewIconURL": "../extensions/swr-sense-navigation/swr-sense-navigation.png"
        }
      },
      "qChildren": []
    },
    {
      "qProperty": {
        "qInfo": {
          "qId": "vJJdEh",
          "qType": "swr-sense-navigation"
        },
        "qMetaDef": {},
        "showTitles": false,
        "title": "",
        "subtitle": "",
        "footnote": "",
        "showDetails": false,
        "props": {
          "buttonLabel": "Inventory",
          "buttonStyle": "info",
          "fullWidth": true,
          "buttonAlign": "left",
          "buttonIcon": "",
          "action": "gotoSheet",
          "sheetId": "",
          "selectedSheet": "260dad28-2b0e-47c3-8360-54ca158a2bd9",
          "selectedStory": "",
          "websiteUrl": "",
          "isActionsBefore": false,
          "actionBefore1": "none",
          "field1": "",
          "variable1": "",
          "value1": "",
          "bookmark1": "",
          "actionBefore2": "none",
          "field2": "",
          "variable2": "",
          "value2": "",
          "bookmark2": ""
        },
        "visualization": "swr-sense-navigation",
        "version": "0.5.8",
        "extensionMeta": {
          "translationKey": "",
          "icon": "puzzle",
          "iconChar": "g",
          "isLibraryItem": true,
          "name": "Sheet Navigation & Actions",
          "description": "Sense Sheet Navigation + Actions visualization extension for Qlik Sense.",
          "template": "swr-sense-navigation",
          "isThirdParty": true,
          "type": "visualization",
          "version": "0.5.8",
          "preview": "swr-sense-navigation.png",
          "author": "Stefan Walther",
          "license": "MIT",
          "homepage": "http://github.com/stefanwalther/sense-navigation",
          "keywords": "qlik-sense, visualization",
          "repository": "https://github.com/stefanwalther/sense-navigation",
          "dependencies": {
            "qlik-sense": ">=2.1.1"
          },
          "previewIconURL": "../extensions/swr-sense-navigation/swr-sense-navigation.png"
        }
      },
      "qChildren": []
    },
    {
      "qProperty": {
        "qInfo": {
          "qId": "jVaJNP",
          "qType": "swr-sense-navigation"
        },
        "qMetaDef": {},
        "showTitles": false,
        "title": "",
        "subtitle": "",
        "footnote": "",
        "showDetails": false,
        "props": {
          "buttonLabel": "Budget",
          "buttonStyle": "info",
          "fullWidth": true,
          "buttonAlign": "left",
          "buttonIcon": "",
          "action": "gotoSheet",
          "sheetId": "",
          "selectedSheet": "05138ac7-ada4-4ef9-b25d-758aa453198e",
          "selectedStory": "",
          "websiteUrl": "",
          "isActionsBefore": false,
          "actionBefore1": "none",
          "field1": "",
          "variable1": "",
          "value1": "",
          "bookmark1": "",
          "actionBefore2": "none",
          "field2": "",
          "variable2": "",
          "value2": "",
          "bookmark2": ""
        },
        "visualization": "swr-sense-navigation",
        "version": "0.5.8",
        "extensionMeta": {
          "translationKey": "",
          "icon": "puzzle",
          "iconChar": "g",
          "isLibraryItem": true,
          "name": "Sheet Navigation & Actions",
          "description": "Sense Sheet Navigation + Actions visualization extension for Qlik Sense.",
          "template": "swr-sense-navigation",
          "isThirdParty": true,
          "type": "visualization",
          "version": "0.5.8",
          "preview": "swr-sense-navigation.png",
          "author": "Stefan Walther",
          "license": "MIT",
          "homepage": "http://github.com/stefanwalther/sense-navigation",
          "keywords": "qlik-sense, visualization",
          "repository": "https://github.com/stefanwalther/sense-navigation",
          "dependencies": {
            "qlik-sense": ">=2.1.1"
          },
          "previewIconURL": "../extensions/swr-sense-navigation/swr-sense-navigation.png"
        }
      },
      "qChildren": []
    },
    {
      "qProperty": {
        "qInfo": {
          "qId": "YpDKYyF",
          "qType": "swr-sense-navigation"
        },
        "qMetaDef": {},
        "showTitles": false,
        "title": "",
        "subtitle": "",
        "footnote": "",
        "showDetails": false,
        "props": {
          "buttonLabel": "Risk",
          "buttonStyle": "default",
          "fullWidth": true,
          "buttonAlign": "left",
          "buttonIcon": "",
          "action": "gotoSheet",
          "sheetId": "",
          "selectedSheet": "2e8ddd74-41bb-4381-8ad5-2bba149b3c2b",
          "selectedStory": "",
          "websiteUrl": "",
          "isActionsBefore": false,
          "actionBefore1": "none",
          "field1": "",
          "variable1": "",
          "value1": "",
          "bookmark1": "",
          "actionBefore2": "none",
          "field2": "",
          "variable2": "",
          "value2": "",
          "bookmark2": ""
        },
        "visualization": "swr-sense-navigation",
        "version": "0.5.8",
        "extensionMeta": {
          "translationKey": "",
          "icon": "puzzle",
          "iconChar": "g",
          "isLibraryItem": true,
          "name": "Sheet Navigation & Actions",
          "description": "Sense Sheet Navigation + Actions visualization extension for Qlik Sense.",
          "template": "swr-sense-navigation",
          "isThirdParty": true,
          "type": "visualization",
          "version": "0.5.8",
          "preview": "swr-sense-navigation.png",
          "author": "Stefan Walther",
          "license": "MIT",
          "homepage": "http://github.com/stefanwalther/sense-navigation",
          "keywords": "qlik-sense, visualization",
          "repository": "https://github.com/stefanwalther/sense-navigation",
          "dependencies": {
            "qlik-sense": ">=2.1.1"
          },
          "previewIconURL": "../extensions/swr-sense-navigation/swr-sense-navigation.png"
        }
      },
      "qChildren": []
    },
    {
      "qProperty": {
        "qInfo": {
          "qId": "AcDttmm",
          "qType": "variable"
        },
        "qMetaDef": {},
        "showTitles": false,
        "title": "",
        "subtitle": "",
        "footnote": "",
        "showDetails": false,
        "variableName": "variable_Risk",
        "style": "qlik",
        "width": "fill",
        "customwidth": "",
        "render": "b",
        "alternatives": [
          {
            "value": "1",
            "label": "Out of stock",
            "cId": "sWGMKBa"
          },
          {
            "value": "2",
            "label": "Missed dispensing",
            "cId": "dTWUHb"
          }
        ],
        "min": 0,
        "max": 100,
        "step": 1,
        "rangelabel": false,
        "visualization": "variable",
        "variableValue": {
          "qStringExpression": {
            "qExpr": "=variable_Risk"
          }
        },
        "version": 1,
        "extensionMeta": {
          "translationKey": "",
          "icon": "puzzle",
          "iconChar": "g",
          "isLibraryItem": true,
          "name": "Variable",
          "description": "Variable extension",
          "template": "variable",
          "isThirdParty": true,
          "version": "2.3.1",
          "type": "visualization",
          "author": "Erik Wetterberg"
        }
      },
      "qChildren": []
    },
    {
      "qProperty": {
        "qInfo": {
          "qId": "jBjuU",
          "qType": "swr-sense-navigation"
        },
        "qMetaDef": {},
        "showTitles": false,
        "title": "",
        "subtitle": "",
        "footnote": "",
        "showDetails": false,
        "props": {
          "buttonLabel": "Welcome",
          "buttonStyle": "primary",
          "fullWidth": true,
          "buttonAlign": "left",
          "buttonIcon": "",
          "action": "gotoSheet",
          "sheetId": "",
          "selectedSheet": "7fe110a0-0971-4859-aae1-9e150a02119d",
          "selectedStory": "",
          "websiteUrl": "",
          "isActionsBefore": false,
          "actionBefore1": "none",
          "field1": "",
          "variable1": "",
          "value1": "",
          "bookmark1": "",
          "actionBefore2": "none",
          "field2": "",
          "variable2": "",
          "value2": "",
          "bookmark2": ""
        },
        "visualization": "swr-sense-navigation",
        "version": "0.5.8",
        "extensionMeta": {
          "translationKey": "",
          "icon": "puzzle",
          "iconChar": "g",
          "isLibraryItem": true,
          "name": "Sheet Navigation & Actions",
          "description": "Sense Sheet Navigation + Actions visualization extension for Qlik Sense.",
          "template": "swr-sense-navigation",
          "isThirdParty": true,
          "type": "visualization",
          "version": "0.5.8",
          "preview": "swr-sense-navigation.png",
          "author": "Stefan Walther",
          "license": "MIT",
          "homepage": "http://github.com/stefanwalther/sense-navigation",
          "keywords": "qlik-sense, visualization",
          "repository": "https://github.com/stefanwalther/sense-navigation",
          "dependencies": {
            "qlik-sense": ">=2.1.1"
          },
          "previewIconURL": "../extensions/swr-sense-navigation/swr-sense-navigation.png"
        }
      },
      "qChildren": []
    },
    {
      "qProperty": {
        "qInfo": {
          "qId": "jxaHVPB",
          "qType": "filterpane"
        },
        "qMetaDef": {},
        "qChildListDef": {
          "qData": {
            "info": "/qInfo"
          }
        },
        "showTitles": false,
        "title": "",
        "subtitle": "",
        "footnote": "",
        "showDetails": false,
        "visualization": "filterpane"
      },
      "qChildren": [
        {
          "qProperty": {
            "qInfo": {
              "qId": "ghEPm",
              "qType": "listbox"
            },
            "qMetaDef": {},
            "qListObjectDef": {
              "qDef": {
                "qGrouping": "N",
                "qFieldDefs": [
                  "=Project"
                ],
                "qFieldLabels": [
                  "=[Compound Label]"
                ],
                "qSortCriterias": [
                  {
                    "qSortByState": 1,
                    "qSortByNumeric": 1,
                    "qSortByAscii": 1,
                    "qSortByLoadOrder": 1,
                    "qExpression": {}
                  }
                ],
                "qNumberPresentations": [],
                "qActiveField": 0,
                "qLabelExpression": "'SKU'",
                "autoSort": true,
                "cId": "Csvvke"
              },
              "qFrequencyMode": "N",
              "qShowAlternatives": true,
              "qInitialDataFetch": [],
              "qExpressions": [],
              "qOtherTotalSpec": {}
            },
            "showTitles": true,
            "title": "Project",
            "subtitle": "",
            "footnote": "",
            "showDetails": false,
            "visualization": "listbox"
          },
          "qChildren": []
        }
      ]
    },
    {
      "qProperty": {
        "qInfo": {
          "qId": "rGVxj",
          "qType": "filterpane"
        },
        "qMetaDef": {},
        "qChildListDef": {
          "qData": {
            "info": "/qInfo"
          }
        },
        "showTitles": false,
        "title": "",
        "subtitle": "",
        "footnote": "",
        "showDetails": false,
        "visualization": "filterpane"
      },
      "qChildren": [
        {
          "qProperty": {
            "qInfo": {
              "qId": "48e249ab-796c-46e1-a5e4-39c188d5c6bf",
              "qType": "listbox"
            },
            "qMetaDef": {},
            "qListObjectDef": {
              "qDef": {
                "qGrouping": "N",
                "qFieldDefs": [
                  "Site group"
                ],
                "qFieldLabels": [
                  "Site group"
                ],
                "qSortCriterias": [
                  {
                    "qSortByState": 1,
                    "qSortByNumeric": 1,
                    "qSortByAscii": 1,
                    "qSortByLoadOrder": 1,
                    "qExpression": {}
                  }
                ],
                "qNumberPresentations": [],
                "qActiveField": 0,
                "autoSort": true,
                "cId": "jfPsSY"
              },
              "qFrequencyMode": "N",
              "qShowAlternatives": true,
              "qInitialDataFetch": [],
              "qExpressions": [],
              "qOtherTotalSpec": {}
            },
            "showTitles": true,
            "title": "Site group",
            "subtitle": "",
            "footnote": "",
            "showDetails": false,
            "visualization": "listbox"
          },
          "qChildren": []
        }
      ]
    }
  ]
}