{
  "qProperty": {
    "qInfo": {
      "qId": "17db13a0-e120-4896-bcb2-ceef83a66389",
      "qType": "masterobject"
    },
    "qMetaDef": {
      "title": "Button for cost category",
      "description": "",
      "tags": []
    },
    "showTitles": false,
    "title": "",
    "subtitle": "",
    "footnote": "",
    "showDetails": false,
    "props": {
      "buttonLabel": "Back to all cost cat.",
      "buttonShowIcon": true,
      "buttonIconLui": "back",
      "fullWidth": true,
      "buttonAlignment": "top-left",
      "buttonTextAlign": "center",
      "useEnabledCondition": false,
      "enabledCondition": 1,
      "actionItems": [
        {
          "actionType": "clearField",
          "selectedBookmark": "",
          "selectedField": "Cost category",
          "field": "",
          "variable": "",
          "value": "",
          "valueDesc": null,
          "softLock": false,
          "cId": "yhJRFV"
        }
      ],
      "navigationAction": "none",
      "sheetId": "",
      "selectedSheet": "",
      "selectedStory": "",
      "websiteUrl": "",
      "sameWindow": true,
      "buttonIconSet": "lui"
    },
    "visualization": "qlik-button-for-navigation",
    "version": "2.0.9",
    "extensionMeta": {
      "translationKey": "",
      "icon": "align-object-center",
      "iconChar": "g",
      "isLibraryItem": true,
      "visible": true,
      "name": "Button for navigation",
      "description": "Enhance your app with buttons and actions.",
      "template": "qlik-button-for-navigation",
      "isThirdParty": true,
      "type": "visualization",
      "version": "2.0.9",
      "preview": "qlik-button-for-navigation.png",
      "keywords": [
        "actions",
        "bootstrap",
        "button",
        "navigation",
        "qlik",
        "qlik-sense",
        "qlik-sense-visualization-extension",
        "sense",
        "sheets"
      ],
      "author": "Stefan Walther",
      "homepage": "https://github.com/stefanwalther/sense-navigation",
      "license": "MIT",
      "repository": "",
      "installer": "QlikExtensionBundler",
      "bundle": {
        "id": "qlik-dashboard-bundle",
        "name": "Qlik Dashboard bundle",
        "description": "This is a set of supported extensions that will facilitate dashboard creation in Qlik Sense: A navigation button, a date picker, a slider, and two different container objects. These can be used in addition to the native objects found under 'Charts'.\n\nFor limitations and support conditions, see the documentation."
      },
      "dependencies": {
        "qlik-sense": ">=5.5.x"
      },
      "previewIconURL": "../extensions/qlik-button-for-navigation/qlik-button-for-navigation.png"
    },
    "masterVersion": 0.96
  },
  "qChildren": []
}