{
  "qInfo": {
    "qId": "TKYA",
    "qType": "dimension"
  },
  "qDim": {
    "qGrouping": "N",
    "qFieldDefs": [
      "=[Warehouse_Country ISO]"
    ],
    "qFieldLabels": [
      "Warehouse ISO"
    ],
    "qLabelExpression": "'Warehouse ISO'",
    "title": "Warehouse ISO",
    "coloring": {
      "changeHash": "0.5899955266476242",
      "colorMapRef": "TKYA"
    }
  },
  "qMetaDef": {
    "title": "Warehouse ISO",
    "description": "",
    "tags": []
  }
}